-- Merging decision tree log ---
application
INJECTED from /home/sir_laurent/StudioProjects/adam/android/app/src/main/AndroidManifest.xml:6:4-36:19
MERGED from [:image_picker_android] /home/sir_laurent/StudioProjects/adam/build/image_picker_android/intermediates/merged_manifest/debug/AndroidManifest.xml:9:5-19:19
MERGED from [:image_picker_android] /home/sir_laurent/StudioProjects/adam/build/image_picker_android/intermediates/merged_manifest/debug/AndroidManifest.xml:9:5-19:19
MERGED from [androidx.window:window:1.0.0-beta04] /home/sir_laurent/.gradle/caches/transforms-3/49bc944d29f70d45aa5add8e43e3247e/transformed/jetified-window-1.0.0-beta04/AndroidManifest.xml:24:5-31:19
MERGED from [androidx.window:window:1.0.0-beta04] /home/sir_laurent/.gradle/caches/transforms-3/49bc944d29f70d45aa5add8e43e3247e/transformed/jetified-window-1.0.0-beta04/AndroidManifest.xml:24:5-31:19
MERGED from [androidx.core:core:1.8.0] /home/sir_laurent/.gradle/caches/transforms-3/d363e3b5616f580c766e3e2b3c05f27d/transformed/core-1.8.0/AndroidManifest.xml:24:5-89
MERGED from [androidx.core:core:1.8.0] /home/sir_laurent/.gradle/caches/transforms-3/d363e3b5616f580c766e3e2b3c05f27d/transformed/core-1.8.0/AndroidManifest.xml:24:5-89
MERGED from [androidx.versionedparcelable:versionedparcelable:1.1.1] /home/sir_laurent/.gradle/caches/transforms-3/c6290d38a27dcf8d064fa9cefcb89071/transformed/versionedparcelable-1.1.1/AndroidManifest.xml:24:5-25:19
MERGED from [androidx.versionedparcelable:versionedparcelable:1.1.1] /home/sir_laurent/.gradle/caches/transforms-3/c6290d38a27dcf8d064fa9cefcb89071/transformed/versionedparcelable-1.1.1/AndroidManifest.xml:24:5-25:19
	android:appComponentFactory
		ADDED from [androidx.core:core:1.8.0] /home/sir_laurent/.gradle/caches/transforms-3/d363e3b5616f580c766e3e2b3c05f27d/transformed/core-1.8.0/AndroidManifest.xml:24:18-86
	android:name
		INJECTED from /home/sir_laurent/StudioProjects/adam/android/app/src/main/AndroidManifest.xml
manifest
ADDED from /home/sir_laurent/StudioProjects/adam/android/app/src/main/AndroidManifest.xml:1:1-37:12
INJECTED from /home/sir_laurent/StudioProjects/adam/android/app/src/main/AndroidManifest.xml:1:1-37:12
INJECTED from /home/sir_laurent/StudioProjects/adam/android/app/src/main/AndroidManifest.xml:1:1-37:12
INJECTED from /home/sir_laurent/StudioProjects/adam/android/app/src/main/AndroidManifest.xml:1:1-37:12
MERGED from /home/sir_laurent/StudioProjects/adam/android/app/src/main/AndroidManifest.xml:1:1-37:12
MERGED from [:image_picker_android] /home/sir_laurent/StudioProjects/adam/build/image_picker_android/intermediates/merged_manifest/debug/AndroidManifest.xml:2:1-21:12
MERGED from [:flutter_plugin_android_lifecycle] /home/sir_laurent/StudioProjects/adam/build/flutter_plugin_android_lifecycle/intermediates/merged_manifest/debug/AndroidManifest.xml:2:1-9:12
MERGED from [:modal_progress_hud_nsn] /home/sir_laurent/StudioProjects/adam/build/modal_progress_hud_nsn/intermediates/merged_manifest/debug/AndroidManifest.xml:2:1-9:12
MERGED from [:path_provider_android] /home/sir_laurent/StudioProjects/adam/build/path_provider_android/intermediates/merged_manifest/debug/AndroidManifest.xml:2:1-9:12
MERGED from [:flutter_image_compress] /home/sir_laurent/StudioProjects/adam/build/flutter_image_compress/intermediates/merged_manifest/debug/AndroidManifest.xml:2:1-11:12
MERGED from [androidx.window:window-java:1.0.0-beta04] /home/sir_laurent/.gradle/caches/transforms-3/246793f755122fe14a5802655438cb75/transformed/jetified-window-java-1.0.0-beta04/AndroidManifest.xml:17:1-23:12
MERGED from [androidx.window:window:1.0.0-beta04] /home/sir_laurent/.gradle/caches/transforms-3/49bc944d29f70d45aa5add8e43e3247e/transformed/jetified-window-1.0.0-beta04/AndroidManifest.xml:17:1-33:12
MERGED from [androidx.fragment:fragment:1.1.0] /home/sir_laurent/.gradle/caches/transforms-3/0e0e1a382b52c0572988a1c50e96d2f7/transformed/fragment-1.1.0/AndroidManifest.xml:17:1-24:12
MERGED from [androidx.viewpager:viewpager:1.0.0] /home/sir_laurent/.gradle/caches/transforms-3/045d2e69ed718df502093495707de7d0/transformed/viewpager-1.0.0/AndroidManifest.xml:17:1-22:12
MERGED from [androidx.loader:loader:1.0.0] /home/sir_laurent/.gradle/caches/transforms-3/906f41b23948e23cf276f1b1ba5ed41e/transformed/loader-1.0.0/AndroidManifest.xml:17:1-22:12
MERGED from [androidx.activity:activity:1.0.0] /home/sir_laurent/.gradle/caches/transforms-3/8fa8bdf086632123dcb3f9226ab7b2b9/transformed/jetified-activity-1.0.0/AndroidManifest.xml:17:1-24:12
MERGED from [androidx.customview:customview:1.0.0] /home/sir_laurent/.gradle/caches/transforms-3/d411e96186971239cc9320701a4aa95b/transformed/customview-1.0.0/AndroidManifest.xml:17:1-22:12
MERGED from [androidx.core:core:1.8.0] /home/sir_laurent/.gradle/caches/transforms-3/d363e3b5616f580c766e3e2b3c05f27d/transformed/core-1.8.0/AndroidManifest.xml:17:1-26:12
MERGED from [androidx.exifinterface:exifinterface:1.3.3] /home/sir_laurent/.gradle/caches/transforms-3/1a84149c74c401c9e5ff7324425946dc/transformed/exifinterface-1.3.3/AndroidManifest.xml:17:1-24:12
MERGED from [androidx.heifwriter:heifwriter:1.0.0] /home/sir_laurent/.gradle/caches/transforms-3/18485b8fdd71feb68b34744674a28d52/transformed/heifwriter-1.0.0/AndroidManifest.xml:17:1-22:12
MERGED from [androidx.tracing:tracing:1.0.0] /home/sir_laurent/.gradle/caches/transforms-3/9a15d0431946b4658756ca271d093b65/transformed/jetified-tracing-1.0.0/AndroidManifest.xml:17:1-24:12
MERGED from [androidx.lifecycle:lifecycle-runtime:2.3.1] /home/sir_laurent/.gradle/caches/transforms-3/8a5514d4341f323606d890e29d4268b9/transformed/lifecycle-runtime-2.3.1/AndroidManifest.xml:17:1-24:12
MERGED from [androidx.versionedparcelable:versionedparcelable:1.1.1] /home/sir_laurent/.gradle/caches/transforms-3/c6290d38a27dcf8d064fa9cefcb89071/transformed/versionedparcelable-1.1.1/AndroidManifest.xml:17:1-27:12
MERGED from [androidx.savedstate:savedstate:1.0.0] /home/sir_laurent/.gradle/caches/transforms-3/61be2594815516b1d798e8de806d8dcb/transformed/jetified-savedstate-1.0.0/AndroidManifest.xml:17:1-24:12
MERGED from [androidx.lifecycle:lifecycle-livedata:2.0.0] /home/sir_laurent/.gradle/caches/transforms-3/4d571c0d2420042bbe5204d312a62bb2/transformed/lifecycle-livedata-2.0.0/AndroidManifest.xml:17:1-22:12
MERGED from [androidx.lifecycle:lifecycle-livedata-core:2.0.0] /home/sir_laurent/.gradle/caches/transforms-3/ab7ce279708bbb9e6bfa95c7580f1bb9/transformed/lifecycle-livedata-core-2.0.0/AndroidManifest.xml:17:1-22:12
MERGED from [androidx.arch.core:core-runtime:2.1.0] /home/sir_laurent/.gradle/caches/transforms-3/b0ed3bc1190a335fc620be73cef0fa31/transformed/core-runtime-2.1.0/AndroidManifest.xml:17:1-24:12
MERGED from [androidx.lifecycle:lifecycle-viewmodel:2.1.0] /home/sir_laurent/.gradle/caches/transforms-3/ed9734c73cdec898947618088fbe87b0/transformed/lifecycle-viewmodel-2.1.0/AndroidManifest.xml:17:1-22:12
MERGED from [androidx.annotation:annotation-experimental:1.1.0] /home/sir_laurent/.gradle/caches/transforms-3/58e3540d7f5a5bac6af9a8f8fab44363/transformed/jetified-annotation-experimental-1.1.0/AndroidManifest.xml:17:1-24:12
INJECTED from /home/sir_laurent/StudioProjects/adam/android/app/src/debug/AndroidManifest.xml:1:1-8:12
INJECTED from /home/sir_laurent/StudioProjects/adam/android/app/src/debug/AndroidManifest.xml:1:1-8:12
INJECTED from /home/sir_laurent/StudioProjects/adam/android/app/src/debug/AndroidManifest.xml:1:1-8:12
	package
		ADDED from /home/sir_laurent/StudioProjects/adam/android/app/src/main/AndroidManifest.xml:2:5-31
		INJECTED from /home/sir_laurent/StudioProjects/adam/android/app/src/main/AndroidManifest.xml
		INJECTED from /home/sir_laurent/StudioProjects/adam/android/app/src/debug/AndroidManifest.xml
	android:versionName
		INJECTED from /home/sir_laurent/StudioProjects/adam/android/app/src/main/AndroidManifest.xml
		ADDED from /home/sir_laurent/StudioProjects/adam/android/app/src/main/AndroidManifest.xml:1:1-37:12
		INJECTED from /home/sir_laurent/StudioProjects/adam/android/app/src/debug/AndroidManifest.xml
	android:versionCode
		INJECTED from /home/sir_laurent/StudioProjects/adam/android/app/src/main/AndroidManifest.xml
		ADDED from /home/sir_laurent/StudioProjects/adam/android/app/src/main/AndroidManifest.xml:1:1-37:12
		INJECTED from /home/sir_laurent/StudioProjects/adam/android/app/src/debug/AndroidManifest.xml
	xmlns:android
		ADDED from /home/sir_laurent/StudioProjects/adam/android/app/src/main/AndroidManifest.xml:1:11-69
uses-permission#android.permission.WRITE_EXTERNAL_STORAGE
ADDED from /home/sir_laurent/StudioProjects/adam/android/app/src/main/AndroidManifest.xml:3:5-81
	android:name
		ADDED from /home/sir_laurent/StudioProjects/adam/android/app/src/main/AndroidManifest.xml:3:22-78
uses-permission#android.permission.READ_EXTERNAL_STORAGE
ADDED from /home/sir_laurent/StudioProjects/adam/android/app/src/main/AndroidManifest.xml:4:5-80
	android:name
		ADDED from /home/sir_laurent/StudioProjects/adam/android/app/src/main/AndroidManifest.xml:4:22-77
uses-sdk
INJECTED from /home/sir_laurent/StudioProjects/adam/android/app/src/main/AndroidManifest.xml reason: use-sdk injection requested
INJECTED from /home/sir_laurent/StudioProjects/adam/android/app/src/main/AndroidManifest.xml
INJECTED from /home/sir_laurent/StudioProjects/adam/android/app/src/main/AndroidManifest.xml
MERGED from [:image_picker_android] /home/sir_laurent/StudioProjects/adam/build/image_picker_android/intermediates/merged_manifest/debug/AndroidManifest.xml:5:5-7:41
MERGED from [:image_picker_android] /home/sir_laurent/StudioProjects/adam/build/image_picker_android/intermediates/merged_manifest/debug/AndroidManifest.xml:5:5-7:41
MERGED from [:flutter_plugin_android_lifecycle] /home/sir_laurent/StudioProjects/adam/build/flutter_plugin_android_lifecycle/intermediates/merged_manifest/debug/AndroidManifest.xml:5:5-7:41
MERGED from [:flutter_plugin_android_lifecycle] /home/sir_laurent/StudioProjects/adam/build/flutter_plugin_android_lifecycle/intermediates/merged_manifest/debug/AndroidManifest.xml:5:5-7:41
MERGED from [:modal_progress_hud_nsn] /home/sir_laurent/StudioProjects/adam/build/modal_progress_hud_nsn/intermediates/merged_manifest/debug/AndroidManifest.xml:5:5-7:41
MERGED from [:modal_progress_hud_nsn] /home/sir_laurent/StudioProjects/adam/build/modal_progress_hud_nsn/intermediates/merged_manifest/debug/AndroidManifest.xml:5:5-7:41
MERGED from [:path_provider_android] /home/sir_laurent/StudioProjects/adam/build/path_provider_android/intermediates/merged_manifest/debug/AndroidManifest.xml:5:5-7:41
MERGED from [:path_provider_android] /home/sir_laurent/StudioProjects/adam/build/path_provider_android/intermediates/merged_manifest/debug/AndroidManifest.xml:5:5-7:41
MERGED from [:flutter_image_compress] /home/sir_laurent/StudioProjects/adam/build/flutter_image_compress/intermediates/merged_manifest/debug/AndroidManifest.xml:6:5-9:55
MERGED from [:flutter_image_compress] /home/sir_laurent/StudioProjects/adam/build/flutter_image_compress/intermediates/merged_manifest/debug/AndroidManifest.xml:6:5-9:55
MERGED from [androidx.window:window-java:1.0.0-beta04] /home/sir_laurent/.gradle/caches/transforms-3/246793f755122fe14a5802655438cb75/transformed/jetified-window-java-1.0.0-beta04/AndroidManifest.xml:19:5-21:41
MERGED from [androidx.window:window-java:1.0.0-beta04] /home/sir_laurent/.gradle/caches/transforms-3/246793f755122fe14a5802655438cb75/transformed/jetified-window-java-1.0.0-beta04/AndroidManifest.xml:19:5-21:41
MERGED from [androidx.window:window:1.0.0-beta04] /home/sir_laurent/.gradle/caches/transforms-3/49bc944d29f70d45aa5add8e43e3247e/transformed/jetified-window-1.0.0-beta04/AndroidManifest.xml:20:5-22:41
MERGED from [androidx.window:window:1.0.0-beta04] /home/sir_laurent/.gradle/caches/transforms-3/49bc944d29f70d45aa5add8e43e3247e/transformed/jetified-window-1.0.0-beta04/AndroidManifest.xml:20:5-22:41
MERGED from [androidx.fragment:fragment:1.1.0] /home/sir_laurent/.gradle/caches/transforms-3/0e0e1a382b52c0572988a1c50e96d2f7/transformed/fragment-1.1.0/AndroidManifest.xml:20:5-22:41
MERGED from [androidx.fragment:fragment:1.1.0] /home/sir_laurent/.gradle/caches/transforms-3/0e0e1a382b52c0572988a1c50e96d2f7/transformed/fragment-1.1.0/AndroidManifest.xml:20:5-22:41
MERGED from [androidx.viewpager:viewpager:1.0.0] /home/sir_laurent/.gradle/caches/transforms-3/045d2e69ed718df502093495707de7d0/transformed/viewpager-1.0.0/AndroidManifest.xml:20:5-44
MERGED from [androidx.viewpager:viewpager:1.0.0] /home/sir_laurent/.gradle/caches/transforms-3/045d2e69ed718df502093495707de7d0/transformed/viewpager-1.0.0/AndroidManifest.xml:20:5-44
MERGED from [androidx.loader:loader:1.0.0] /home/sir_laurent/.gradle/caches/transforms-3/906f41b23948e23cf276f1b1ba5ed41e/transformed/loader-1.0.0/AndroidManifest.xml:20:5-44
MERGED from [androidx.loader:loader:1.0.0] /home/sir_laurent/.gradle/caches/transforms-3/906f41b23948e23cf276f1b1ba5ed41e/transformed/loader-1.0.0/AndroidManifest.xml:20:5-44
MERGED from [androidx.activity:activity:1.0.0] /home/sir_laurent/.gradle/caches/transforms-3/8fa8bdf086632123dcb3f9226ab7b2b9/transformed/jetified-activity-1.0.0/AndroidManifest.xml:20:5-22:41
MERGED from [androidx.activity:activity:1.0.0] /home/sir_laurent/.gradle/caches/transforms-3/8fa8bdf086632123dcb3f9226ab7b2b9/transformed/jetified-activity-1.0.0/AndroidManifest.xml:20:5-22:41
MERGED from [androidx.customview:customview:1.0.0] /home/sir_laurent/.gradle/caches/transforms-3/d411e96186971239cc9320701a4aa95b/transformed/customview-1.0.0/AndroidManifest.xml:20:5-44
MERGED from [androidx.customview:customview:1.0.0] /home/sir_laurent/.gradle/caches/transforms-3/d411e96186971239cc9320701a4aa95b/transformed/customview-1.0.0/AndroidManifest.xml:20:5-44
MERGED from [androidx.core:core:1.8.0] /home/sir_laurent/.gradle/caches/transforms-3/d363e3b5616f580c766e3e2b3c05f27d/transformed/core-1.8.0/AndroidManifest.xml:20:5-22:41
MERGED from [androidx.core:core:1.8.0] /home/sir_laurent/.gradle/caches/transforms-3/d363e3b5616f580c766e3e2b3c05f27d/transformed/core-1.8.0/AndroidManifest.xml:20:5-22:41
MERGED from [androidx.exifinterface:exifinterface:1.3.3] /home/sir_laurent/.gradle/caches/transforms-3/1a84149c74c401c9e5ff7324425946dc/transformed/exifinterface-1.3.3/AndroidManifest.xml:20:5-22:41
MERGED from [androidx.exifinterface:exifinterface:1.3.3] /home/sir_laurent/.gradle/caches/transforms-3/1a84149c74c401c9e5ff7324425946dc/transformed/exifinterface-1.3.3/AndroidManifest.xml:20:5-22:41
MERGED from [androidx.heifwriter:heifwriter:1.0.0] /home/sir_laurent/.gradle/caches/transforms-3/18485b8fdd71feb68b34744674a28d52/transformed/heifwriter-1.0.0/AndroidManifest.xml:20:5-44
MERGED from [androidx.heifwriter:heifwriter:1.0.0] /home/sir_laurent/.gradle/caches/transforms-3/18485b8fdd71feb68b34744674a28d52/transformed/heifwriter-1.0.0/AndroidManifest.xml:20:5-44
MERGED from [androidx.tracing:tracing:1.0.0] /home/sir_laurent/.gradle/caches/transforms-3/9a15d0431946b4658756ca271d093b65/transformed/jetified-tracing-1.0.0/AndroidManifest.xml:20:5-22:41
MERGED from [androidx.tracing:tracing:1.0.0] /home/sir_laurent/.gradle/caches/transforms-3/9a15d0431946b4658756ca271d093b65/transformed/jetified-tracing-1.0.0/AndroidManifest.xml:20:5-22:41
MERGED from [androidx.lifecycle:lifecycle-runtime:2.3.1] /home/sir_laurent/.gradle/caches/transforms-3/8a5514d4341f323606d890e29d4268b9/transformed/lifecycle-runtime-2.3.1/AndroidManifest.xml:20:5-22:41
MERGED from [androidx.lifecycle:lifecycle-runtime:2.3.1] /home/sir_laurent/.gradle/caches/transforms-3/8a5514d4341f323606d890e29d4268b9/transformed/lifecycle-runtime-2.3.1/AndroidManifest.xml:20:5-22:41
MERGED from [androidx.versionedparcelable:versionedparcelable:1.1.1] /home/sir_laurent/.gradle/caches/transforms-3/c6290d38a27dcf8d064fa9cefcb89071/transformed/versionedparcelable-1.1.1/AndroidManifest.xml:20:5-22:41
MERGED from [androidx.versionedparcelable:versionedparcelable:1.1.1] /home/sir_laurent/.gradle/caches/transforms-3/c6290d38a27dcf8d064fa9cefcb89071/transformed/versionedparcelable-1.1.1/AndroidManifest.xml:20:5-22:41
MERGED from [androidx.savedstate:savedstate:1.0.0] /home/sir_laurent/.gradle/caches/transforms-3/61be2594815516b1d798e8de806d8dcb/transformed/jetified-savedstate-1.0.0/AndroidManifest.xml:20:5-22:41
MERGED from [androidx.savedstate:savedstate:1.0.0] /home/sir_laurent/.gradle/caches/transforms-3/61be2594815516b1d798e8de806d8dcb/transformed/jetified-savedstate-1.0.0/AndroidManifest.xml:20:5-22:41
MERGED from [androidx.lifecycle:lifecycle-livedata:2.0.0] /home/sir_laurent/.gradle/caches/transforms-3/4d571c0d2420042bbe5204d312a62bb2/transformed/lifecycle-livedata-2.0.0/AndroidManifest.xml:20:5-44
MERGED from [androidx.lifecycle:lifecycle-livedata:2.0.0] /home/sir_laurent/.gradle/caches/transforms-3/4d571c0d2420042bbe5204d312a62bb2/transformed/lifecycle-livedata-2.0.0/AndroidManifest.xml:20:5-44
MERGED from [androidx.lifecycle:lifecycle-livedata-core:2.0.0] /home/sir_laurent/.gradle/caches/transforms-3/ab7ce279708bbb9e6bfa95c7580f1bb9/transformed/lifecycle-livedata-core-2.0.0/AndroidManifest.xml:20:5-44
MERGED from [androidx.lifecycle:lifecycle-livedata-core:2.0.0] /home/sir_laurent/.gradle/caches/transforms-3/ab7ce279708bbb9e6bfa95c7580f1bb9/transformed/lifecycle-livedata-core-2.0.0/AndroidManifest.xml:20:5-44
MERGED from [androidx.arch.core:core-runtime:2.1.0] /home/sir_laurent/.gradle/caches/transforms-3/b0ed3bc1190a335fc620be73cef0fa31/transformed/core-runtime-2.1.0/AndroidManifest.xml:20:5-22:41
MERGED from [androidx.arch.core:core-runtime:2.1.0] /home/sir_laurent/.gradle/caches/transforms-3/b0ed3bc1190a335fc620be73cef0fa31/transformed/core-runtime-2.1.0/AndroidManifest.xml:20:5-22:41
MERGED from [androidx.lifecycle:lifecycle-viewmodel:2.1.0] /home/sir_laurent/.gradle/caches/transforms-3/ed9734c73cdec898947618088fbe87b0/transformed/lifecycle-viewmodel-2.1.0/AndroidManifest.xml:20:5-44
MERGED from [androidx.lifecycle:lifecycle-viewmodel:2.1.0] /home/sir_laurent/.gradle/caches/transforms-3/ed9734c73cdec898947618088fbe87b0/transformed/lifecycle-viewmodel-2.1.0/AndroidManifest.xml:20:5-44
MERGED from [androidx.annotation:annotation-experimental:1.1.0] /home/sir_laurent/.gradle/caches/transforms-3/58e3540d7f5a5bac6af9a8f8fab44363/transformed/jetified-annotation-experimental-1.1.0/AndroidManifest.xml:20:5-22:41
MERGED from [androidx.annotation:annotation-experimental:1.1.0] /home/sir_laurent/.gradle/caches/transforms-3/58e3540d7f5a5bac6af9a8f8fab44363/transformed/jetified-annotation-experimental-1.1.0/AndroidManifest.xml:20:5-22:41
INJECTED from /home/sir_laurent/StudioProjects/adam/android/app/src/debug/AndroidManifest.xml
INJECTED from /home/sir_laurent/StudioProjects/adam/android/app/src/debug/AndroidManifest.xml
	tools:overrideLibrary
		ADDED from [:flutter_image_compress] /home/sir_laurent/StudioProjects/adam/build/flutter_image_compress/intermediates/merged_manifest/debug/AndroidManifest.xml:9:9-52
	android:targetSdkVersion
		INJECTED from /home/sir_laurent/StudioProjects/adam/android/app/src/main/AndroidManifest.xml
		INJECTED from /home/sir_laurent/StudioProjects/adam/android/app/src/debug/AndroidManifest.xml
	android:minSdkVersion
		INJECTED from /home/sir_laurent/StudioProjects/adam/android/app/src/main/AndroidManifest.xml
		INJECTED from /home/sir_laurent/StudioProjects/adam/android/app/src/debug/AndroidManifest.xml
uses-permission#android.permission.INTERNET
ADDED from /home/sir_laurent/StudioProjects/adam/android/app/src/debug/AndroidManifest.xml:7:5-66
	android:name
		ADDED from /home/sir_laurent/StudioProjects/adam/android/app/src/debug/AndroidManifest.xml:7:22-64
provider#io.flutter.plugins.imagepicker.ImagePickerFileProvider
ADDED from [:image_picker_android] /home/sir_laurent/StudioProjects/adam/build/image_picker_android/intermediates/merged_manifest/debug/AndroidManifest.xml:10:9-18:20
	android:grantUriPermissions
		ADDED from [:image_picker_android] /home/sir_laurent/StudioProjects/adam/build/image_picker_android/intermediates/merged_manifest/debug/AndroidManifest.xml:14:13-47
	android:authorities
		ADDED from [:image_picker_android] /home/sir_laurent/StudioProjects/adam/build/image_picker_android/intermediates/merged_manifest/debug/AndroidManifest.xml:12:13-74
	android:exported
		ADDED from [:image_picker_android] /home/sir_laurent/StudioProjects/adam/build/image_picker_android/intermediates/merged_manifest/debug/AndroidManifest.xml:13:13-37
	android:name
		ADDED from [:image_picker_android] /home/sir_laurent/StudioProjects/adam/build/image_picker_android/intermediates/merged_manifest/debug/AndroidManifest.xml:11:13-82
meta-data#android.support.FILE_PROVIDER_PATHS
ADDED from [:image_picker_android] /home/sir_laurent/StudioProjects/adam/build/image_picker_android/intermediates/merged_manifest/debug/AndroidManifest.xml:15:13-17:75
	android:resource
		ADDED from [:image_picker_android] /home/sir_laurent/StudioProjects/adam/build/image_picker_android/intermediates/merged_manifest/debug/AndroidManifest.xml:17:17-72
	android:name
		ADDED from [:image_picker_android] /home/sir_laurent/StudioProjects/adam/build/image_picker_android/intermediates/merged_manifest/debug/AndroidManifest.xml:16:17-67
uses-library#androidx.window.extensions
ADDED from [androidx.window:window:1.0.0-beta04] /home/sir_laurent/.gradle/caches/transforms-3/49bc944d29f70d45aa5add8e43e3247e/transformed/jetified-window-1.0.0-beta04/AndroidManifest.xml:25:9-27:40
	android:required
		ADDED from [androidx.window:window:1.0.0-beta04] /home/sir_laurent/.gradle/caches/transforms-3/49bc944d29f70d45aa5add8e43e3247e/transformed/jetified-window-1.0.0-beta04/AndroidManifest.xml:27:13-37
	android:name
		ADDED from [androidx.window:window:1.0.0-beta04] /home/sir_laurent/.gradle/caches/transforms-3/49bc944d29f70d45aa5add8e43e3247e/transformed/jetified-window-1.0.0-beta04/AndroidManifest.xml:26:13-54
uses-library#androidx.window.sidecar
ADDED from [androidx.window:window:1.0.0-beta04] /home/sir_laurent/.gradle/caches/transforms-3/49bc944d29f70d45aa5add8e43e3247e/transformed/jetified-window-1.0.0-beta04/AndroidManifest.xml:28:9-30:40
	android:required
		ADDED from [androidx.window:window:1.0.0-beta04] /home/sir_laurent/.gradle/caches/transforms-3/49bc944d29f70d45aa5add8e43e3247e/transformed/jetified-window-1.0.0-beta04/AndroidManifest.xml:30:13-37
	android:name
		ADDED from [androidx.window:window:1.0.0-beta04] /home/sir_laurent/.gradle/caches/transforms-3/49bc944d29f70d45aa5add8e43e3247e/transformed/jetified-window-1.0.0-beta04/AndroidManifest.xml:29:13-51
